Positions after: 1000
x,y,z
8.39396,8.39396,8.39396,
8.39396,8.39396,-8.39396,
-8.39396,8.39396,-8.39396,
-8.39396,8.39396,8.39396,
-8.39396,-8.39396,-8.39396,
-8.39396,-8.39396,8.39396,
8.39396,-8.39396,8.39396,
8.39396,-8.39396,-8.39396,
